accel.vcd
$date
	Tue May  1 23:27:12 2018
$end
$version
	Icarus Verilog
$end
$timescale
	1ns
$end
$scope module main $end
$scope module uut $end
$var wire 1 ! clk $end
$var wire 32 " instruction [31:0] $end
$var wire 36 # mem_in [35:0] $end
$var wire 1 $ rst_ext $end
$var wire 1 % writeback_rst $end
$var wire 1 & writeback_en $end
$var wire 8 ' positioner_y [7:0] $end
$var wire 8 ( positioner_x [7:0] $end
$var wire 1 ) positioner_sel $end
$var wire 1 * positioner_rst $end
$var wire 1 + positioner_round $end
$var wire 1 , positioner_done $end
$var wire 1 - positioner_advance $end
$var wire 1 . omem_write_en $end
$var wire 18 / omem_write_data [17:0] $end
$var wire 16 0 omem_write_addr_virt [15:0] $end
$var wire 16 1 omem_write_addr_phys [15:0] $end
$var wire 107 2 mem_out [106:0] $end
$var wire 5 3 instruction_rd [4:0] $end
$var wire 7 4 instruction_opcode [6:0] $end
$var wire 19 5 instruction_imm19 [18:0] $end
$var wire 18 6 imem_read_data [17:0] $end
$var wire 21 7 imem_read_addr_virt [20:0] $end
$var wire 21 8 imem_read_addr_phys [20:0] $end
$var wire 8 9 image_broadcast_y [7:0] $end
$var wire 8 : image_broadcast_x [7:0] $end
$var wire 1 ; image_broadcast_rst $end
$var wire 1 < image_broadcast_round $end
$var wire 1 = image_broadcast_en $end
$var wire 18 > image_broadcast_data [17:0] $end
$var wire 1 ? image_broadcast_block $end
$var wire 18 @ fmem_read_data [17:0] $end
$var wire 16 A fmem_read_addr_virt [15:0] $end
$var wire 16 B fmem_read_addr_phys [15:0] $end
$var wire 1 C filter_broadcast_rst $end
$var wire 1 D filter_broadcast_en $end
$var wire 1 E filter_broadcast_done $end
$var wire 18 F filter_broadcast_data [17:0] $end
$var wire 13 G filter_broadcast_counter [12:0] $end
$var wire 1 H filter_broadcast_block $end
$var wire 8 I field_y_min [7:0] $end
$var wire 8 J field_y_max [7:0] $end
$var wire 8 K field_x_start [7:0] $end
$var wire 8 L field_x_min [7:0] $end
$var wire 8 M field_x_max [7:0] $end
$var wire 8 N field_x_end [7:0] $end
$var wire 1 O allocator_rst $end
$var wire 1 P allocator_done $end
$var wire 18 Q allocator_data [17:0] $end
$var wire 1 R accel_done $end
$var reg 19 S accel_interrupt [18:0] $end
$var reg 18 T filter_bias [17:0] $end
$var reg 2 U filter_halfsize [1:0] $end
$var reg 13 V filter_length [12:0] $end
$var reg 19 W filter_memory_offset [18:0] $end
$var reg 3 X filter_stride [2:0] $end
$var reg 9 Y image_depth [8:0] $end
$var reg 8 Z image_dim [7:0] $end
$var reg 19 [ image_memory_offset [18:0] $end
$var reg 19 \ output_memory_offset [18:0] $end
$var reg 1 ] rst $end
$scope module allocator $end
$var wire 1 ! clk $end
$var wire 18 ^ filter_bias [17:0] $end
$var wire 1 _ filter_blocked $end
$var wire 2 ` filter_halfsize [1:0] $end
$var wire 13 a filter_length [12:0] $end
$var wire 1 b image_a_blocked $end
$var wire 1 c rst $end
$var wire 18 d result_data [17:0] $end
$var wire 48 e result [47:0] $end
$var wire 1 f ramb_writ_b_en $end
$var wire 18 g ramb_writ_b_data [17:0] $end
$var wire 10 h ramb_writ_b_addr [9:0] $end
$var wire 1 i ramb_writ_a_en $end
$var wire 18 j ramb_writ_a_data [17:0] $end
$var wire 10 k ramb_writ_a_addr [9:0] $end
$var wire 18 l ramb_read_b_data [17:0] $end
$var wire 10 m ramb_read_b_addr [9:0] $end
$var wire 18 n ramb_read_a_data [17:0] $end
$var wire 10 o ramb_read_a_addr [9:0] $end
$var wire 13 p issue_a_dsp_counter [12:0] $end
$var wire 13 q issue_a_alloc_counter [12:0] $end
$var wire 8 r image_a_y [7:0] $end
$var wire 8 s image_a_x [7:0] $end
$var wire 18 t image_a_data [17:0] $end
$var wire 1 ? image_a_block $end
$var wire 13 u filter_dsp_counter [12:0] $end
$var wire 18 v filter_data [17:0] $end
$var wire 13 w filter_counter [12:0] $end
$var wire 1 H filter_block $end
$var wire 1 P done $end
$var wire 8 x center_y_input [7:0] $end
$var wire 8 y center_x_input [7:0] $end
$var wire 1 ) center_write_enable $end
$scope module controller $end
$var wire 1 ! clk $end
$var wire 18 z filter_bias [17:0] $end
$var wire 1 _ filter_blocked $end
$var wire 2 { filter_halfsize [1:0] $end
$var wire 13 | filter_length [12:0] $end
$var wire 1 b issue_a_blocked $end
$var wire 1 } issue_a_en $end
$var wire 1 c rst $end
$var wire 1 ~ issue_a_yrange $end
$var wire 8 !" issue_a_y [7:0] $end
$var wire 1 "" issue_a_xrange $end
$var wire 8 #" issue_a_x [7:0] $end
$var wire 13 $" issue_a_dsp_counter [12:0] $end
$var wire 18 %" issue_a_data [17:0] $end
$var wire 13 &" filter_issue_counter [12:0] $end
$var wire 13 '" filter_dsp_counter [12:0] $end
$var wire 18 (" filter_data [17:0] $end
$var wire 8 )" center_y_input [7:0] $end
$var wire 8 *" center_x_input [7:0] $end
$var wire 1 ) center_write_enable $end
$var reg 8 +" center_x [7:0] $end
$var reg 8 ," center_y [7:0] $end
$var reg 1 H filter_block $end
$var reg 13 -" issue_a_alloc_counter [12:0] $end
$var reg 1 ? issue_a_block $end
$var reg 10 ." ramb_a_addr [9:0] $end
$var reg 18 /" ramb_a_data [17:0] $end
$var reg 1 i ramb_a_write_en $end
$var reg 10 0" ramb_b_addr [9:0] $end
$var reg 18 1" ramb_b_data [17:0] $end
$var reg 1 f ramb_b_write_en $end
$upscope $end
$scope module dsp $end
$var wire 1 ! clk $end
$var wire 13 2" filter_length [12:0] $end
$var wire 13 3" issue_a_alloc_counter [12:0] $end
$var wire 1 c rst $end
$var wire 48 4" result [47:0] $end
$var wire 18 5" ramb_b_data [17:0] $end
$var wire 18 6" ramb_a_data [17:0] $end
$var wire 13 7" filter_issue_counter [12:0] $end
$var reg 2 8" dsp_op [1:0] $end
$var reg 2 9" dsp_op_next [1:0] $end
$var reg 13 :" filter_dsp_counter [12:0] $end
$var reg 13 ;" issue_a_dsp_counter [12:0] $end
$var reg 3 <" pipeline_delay_result_counter [2:0] $end
$var reg 10 =" ramb_a_addr [9:0] $end
$var reg 10 >" ramb_b_addr [9:0] $end
$var reg 1 P result_ready $end
$scope module dsp $end
$var wire 48 ?" c [47:0] $end
$var wire 1 ! clk $end
$var wire 2 @" op [1:0] $end
$var wire 18 A" b [17:0] $end
$var wire 18 B" a [17:0] $end
$var reg 48 C" p [47:0] $end
$upscope $end
$upscope $end
$scope module ramb_a $end
$var wire 1 ! clk $end
$var wire 10 D" read_addr [9:0] $end
$var wire 10 E" write_addr [9:0] $end
$var wire 18 F" write_data [17:0] $end
$var wire 1 i write_en $end
$var reg 18 G" read_data [17:0] $end
$upscope $end
$scope module ramb_b $end
$var wire 1 ! clk $end
$var wire 10 H" read_addr [9:0] $end
$var wire 10 I" write_addr [9:0] $end
$var wire 18 J" write_data [17:0] $end
$var wire 1 f write_en $end
$var reg 18 K" read_data [17:0] $end
$upscope $end
$upscope $end
$scope module filter_broadcast $end
$var wire 1 H block $end
$var wire 1 ! clk $end
$var wire 18 L" data [17:0] $end
$var wire 13 M" filter_length [12:0] $end
$var wire 18 N" filter_read_data [17:0] $end
$var wire 1 O" rst $end
$var wire 16 P" filter_read_addr [15:0] $end
$var wire 1 Q" blocked $end
$var reg 13 R" counter [12:0] $end
$var reg 13 S" counter_next [12:0] $end
$var reg 1 E done $end
$var reg 1 D en $end
$upscope $end
$scope module image_broadcast $end
$var wire 1 ? block $end
$var wire 1 ! clk $end
$var wire 8 T" image_dim [7:0] $end
$var wire 2 U" image_padding [1:0] $end
$var wire 18 V" ramb_read_data [17:0] $end
$var wire 1 W" rst $end
$var wire 1 X" x_continuous $end
$var wire 1 Y" x_jump $end
$var wire 9 Z" z_max [8:0] $end
$var wire 8 [" y_min [7:0] $end
$var wire 8 \" y_max [7:0] $end
$var wire 8 ]" x_start [7:0] $end
$var wire 1 ^" x_rectangle $end
$var wire 8 _" x_min [7:0] $end
$var wire 8 `" x_max [7:0] $end
$var wire 8 a" x_end [7:0] $end
$var wire 21 b" ramb_read_addr [20:0] $end
$var wire 16 c" image_channel_len [15:0] $end
$var wire 18 d" current_data [17:0] $end
$var reg 8 e" current_x [7:0] $end
$var reg 8 f" current_y [7:0] $end
$var reg 1 g" data_padding $end
$var reg 1 = en $end
$var reg 8 h" next_x [7:0] $end
$var reg 8 i" next_y [7:0] $end
$var reg 9 j" next_z [8:0] $end
$var reg 1 < round $end
$upscope $end
$scope module positioner $end
$var wire 1 ! clk $end
$var wire 8 k" image_dim [7:0] $end
$var wire 2 l" padding [1:0] $end
$var wire 1 m" rst $end
$var wire 3 n" stride [2:0] $end
$var wire 8 o" position_bound [7:0] $end
$var wire 8 p" next_y [7:0] $end
$var wire 8 q" next_x [7:0] $end
$var wire 8 r" advance_y [7:0] $end
$var wire 8 s" advance_x [7:0] $end
$var wire 1 - advance $end
$var reg 8 t" allocator_counter [7:0] $end
$var reg 1 ) allocator_select $end
$var reg 8 u" center_x [7:0] $end
$var reg 8 v" center_y [7:0] $end
$var reg 1 , done $end
$var reg 1 + round $end
$var reg 8 w" x_end [7:0] $end
$var reg 8 x" x_max [7:0] $end
$var reg 8 y" x_min [7:0] $end
$var reg 8 z" x_start [7:0] $end
$var reg 8 {" y_max [7:0] $end
$var reg 8 |" y_min [7:0] $end
$upscope $end
$scope module scheduler $end
$var wire 1 P allocator_done $end
$var wire 1 ! clk $end
$var wire 1 E filter_broadcast_done $end
$var wire 1 < image_broadcast_round $end
$var wire 1 , positioner_done $end
$var wire 1 + positioner_round $end
$var wire 1 ] rst $end
$var reg 1 R accel_done $end
$var reg 1 O allocator_rst $end
$var reg 3 }" delay_counter [2:0] $end
$var reg 1 C filter_broadcast_rst $end
$var reg 1 ; image_broadcast_rst $end
$var reg 1 - positioner_advance $end
$var reg 1 * positioner_rst $end
$var reg 3 ~" state [2:0] $end
$var reg 1 & writeback_en $end
$var reg 1 % writeback_rst $end
$upscope $end
$scope module writeback $end
$var wire 1 ! clk $end
$var wire 18 !# data [17:0] $end
$var wire 1 & en $end
$var wire 1 "# rst $end
$var reg 16 ## out_mem_addr [15:0] $end
$var reg 18 $# out_mem_data [17:0] $end
$var reg 1 . out_mem_en $end
$var reg 13 %# output_counter [12:0] $end
$var integer 32 &# fptr [31:0] $end
$upscope $end
$upscope $end
$upscope $end
$enddefinitions $end
#0
$dumpvars
b10000000000000000000000000000011 &#
bx %#
bx $#
bx ##
1"#
bx !#
bx ~"
bx }"
bx |"
bx {"
bx z"
bx y"
bx x"
bx w"
bx v"
bx u"
bx t"
bx s"
bx r"
bx q"
bx p"
bx o"
bx n"
1m"
bx l"
bx k"
bx j"
bx i"
bx h"
0g"
bx f"
bx e"
bx d"
bx c"
bx b"
bx a"
bx `"
bx _"
x^"
bx ]"
bx \"
bx ["
bx Z"
xY"
xX"
1W"
bx V"
bx U"
bx T"
bx S"
bx R"
xQ"
b0xxxxxxxxxxxxx P"
1O"
bx N"
bx M"
bx L"
bx K"
bx J"
bx I"
bx H"
bx G"
bx F"
bx E"
bx D"
bx C"
bx B"
bx A"
bx @"
b0 ?"
bx >"
bx ="
bx <"
bx ;"
bx :"
b11 9"
bx 8"
bx 7"
bx 6"
bx 5"
bx 4"
bx 3"
bx 2"
bx 1"
bx 0"
bx /"
bx ."
bx -"
bx ,"
bx +"
bx *"
bx )"
bx ("
bx '"
bx &"
bx %"
bx $"
bx #"
x""
bx !"
x~
x}
bx |
bx {
bx z
bx y
bx x
bx w
bx v
bx u
bx t
bx s
bx r
bx q
bx p
bx o
bx n
bx m
bx l
bx k
bx j
0i
bx h
bx g
0f
bx e
bx d
1c
xb
bx a
bx `
0_
bx ^
1]
bx \
bx [
bx Z
bx Y
bx X
bx W
bx V
bx U
bx T
bx S
xR
bx Q
xP
xO
bx N
bx M
bx L
bx K
bx J
bx I
xH
bx G
bx F
xE
1D
xC
bx B
b0xxxxxxxxxxxxx A
bx @
x?
bx >
x=
x<
x;
bx :
bx 9
bx 8
bx 7
bx 6
bx 5
bx 4
bx 3
bx00000000000000000000000000000000000 2
bx 1
bx 0
bx /
x.
x-
x,
x+
x*
x)
bx (
bx '
x&
x%
1$
bx #
bx "
1!
$end
#5
0!
#10
b101 5
b1011 4
b0 3
0X"
0Y"
1_
1b
0%
0&
0R
1O
1C
1;
0*
1-
b101000000001011 "
0.
b0 0
b0 ##
bx000000000000000000000000000000000000000000000000000000 2
b0 /
b0 $#
b0 %#
b0 <"
0P
b0 8"
b0 @"
b0 9"
b0 u
b0 '"
b0 :"
b0 p
b0 $"
b0 ;"
0Q"
0H
0?
b0 q
b0 -"
b0 3"
b0 M
b0 `"
b0 x"
b11111111 L
b11111111 _"
b11111111 y"
1^"
b0 J
b0 \"
b0 {"
b0 I
b0 ["
b0 |"
b0 N
b0 a"
b0 w"
b0 K
b0 ]"
b0 z"
b0xx '
b0xx x
b0xx )"
b0xx v"
b0xx (
b0xx y
b0xx *"
b0xx u"
0,
0+
b0 t"
0)
b0 G
b0 w
b0 &"
b0 7"
b0 R"
0E
0D
b0 A
b0 P"
b0 S"
0=
b0 j"
0<
b0 }"
b0 ~"
1!
0$
#15
0!
#20
b11 5
b0 Q
b0 d
b0 !#
b1 3
b0 i"
b0 h"
b0 :
b0 s
b0 #"
b0 e"
b0 e
b0 4"
b0 C"
b11001 c"
b101 Z
b101 T"
b101 k"
b11000010001011 "
1!
#25
0!
#30
b0 5
b10 3
b10 Z"
b100001011 "
b11 Y
1!
#35
0!
#40
b1001100 5
b11 3
b0 [
b1001100000110001011 "
1!
#45
0!
#50
b0 F
b0 v
b0 ("
b0 L"
b0 @
b0 N"
b1010110 5
bx000000000000000000 #
b100 3
bx0000000001001100xxxxxxxxxxxxxxxx000000000000000000000000000000000000000000000000000000 2
b1001100 B
b1010110001000001011 "
b1001100 W
1!
#55
0!
#60
b1 5
bx00000000010011000000000001010110000000000000000000000000000000000000000000000000000000 2
b1010110 1
b101 3
b1010110 \
b1001010001011 "
1!
#65
0!
#70
b110 3
b1001100001011 "
b11111111111111111101000000000010011000000000001010110000000000000000000000000000000000000000000000000000000 2
b111111111111111111010 8
b111111111111111111010 7
b111111111111111111010 b"
b101 o"
b1 U
b1 `
b1 {
b1 U"
b1 l"
1!
#75
0!
#80
b10 q"
b1001 5
b0 >
b0 t
b0 %"
b0 d"
b1 p"
b111 3
1g"
b10 r"
b1 '
b1 x
b1 )"
b1 v"
b10 s"
b1 (
b1 y
b1 *"
b1 u"
b1 X
b1 n"
b1001001110001011 "
1!
#85
0!
#90
b0 5
b1000 3
b10000001011 "
b1001 V
b1001 a
b1001 |
b1001 2"
b1001 M"
1!
#95
0!
#100
b1110000000010111010 5
b1001 3
b0 T
b0 ^
b0 z
b11110000000010111010010010001011 "
1!
#105
0!
#110
b0 5
b11111 3
b111110001011 "
b1110000000010111010 S
1!
#115
0!
#120
0"#
0m"
0]
1!
#125
0!
#130
0c
0O"
0O
0C
0-
b1 M
b1 `"
b1 x"
b1 L
b1 _"
b1 y"
b1 t"
1)
b1 ~"
1!
#135
0!
#140
b1 F
b1 v
b1 ("
b1 L"
b1 @
b1 N"
bx000000000000000001 #
b11 q"
1""
b11111111111111111101000000000010011010000000001010110000000000000000000000000000000000000000000000000000000 2
b1001101 B
0_
1X"
b1 }"
b1 A
b1 P"
b1 S"
1D
0)
b0 t"
1+
0^"
b10 J
b10 \"
b10 {"
b10 N
b10 a"
b10 w"
b11 s"
b10 (
b10 y
b10 *"
b10 u"
b10 M
b10 `"
b10 x"
b0 L
b0 _"
b0 y"
b1 ,"
b1 +"
b11 9"
1!
#145
0!
#150
b10 F
b10 v
b10 ("
b10 L"
b10 @
b10 N"
bx000000000000000010 #
0W"
b11111111111111111101000000000010011100000000001010110000000000000000000000000000000000000000000000000000000 2
b1001110 B
0;
b11 8"
b11 @"
b1 g
b1 1"
b1 J"
b1000000000 h
b1000000000 0"
b1000000000 I"
1f
b1 G
b1 w
b1 &"
b1 7"
b1 R"
b10 A
b10 P"
b10 S"
b10 ~"
b10 }"
1!
#155
0!
#160
1}
b11 F
b11 v
b11 ("
b11 L"
b11 @
b11 N"
1~
bx000000000000000011 #
0b
b1001111 B
b11111111111111111101100000000010011110000000001010110000000000000000000000000000000000000000000000000000000 2
b111111111111111111011 8
b111111111111111111011 7
b111111111111111111011 b"
b1 h"
1=
b0 9
b0 r
b0 !"
b0 f"
b11 A
b11 P"
b11 S"
b10 G
b10 w
b10 &"
b10 7"
b10 R"
b10 g
b10 1"
b10 J"
b1000000001 h
b1000000001 0"
b1000000001 I"
1!
#165
0!
#170
b100 F
b100 v
b100 ("
b100 L"
b100 @
b100 N"
bx000000000000000100 #
b1010000 B
b11 g
b11 1"
b11 J"
b1000000010 h
b1000000010 0"
b1000000010 I"
b1 q
b1 -"
b1 3"
b0 j
b0 /"
b0 F"
b0 k
b0 ."
b0 E"
1i
b11 G
b11 w
b11 &"
b11 7"
b11 R"
b100 A
b100 P"
b100 S"
b1 :
b1 s
b1 #"
b1 e"
b11111111111111111110000000000010100000000000001010110000000000000000000000000000000000000000000000000000000 2
b111111111111111111100 8
b111111111111111111100 7
b111111111111111111100 b"
b10 h"
1!
#175
0!
#180
b101 F
b101 v
b101 ("
b101 L"
b101 @
b101 N"
bx000000000000000101 #
b1010001 B
b1 i"
b11111111111111111111100000000010100010000000001010110000000000000000000000000000000000000000000000000000000 2
b111111111111111111111 8
b111111111111111111111 7
b111111111111111111111 b"
b0 h"
b10 :
b10 s
b10 #"
b10 e"
b101 A
b101 P"
b101 S"
b100 G
b100 w
b100 &"
b100 7"
b100 R"
b10 q
b10 -"
b10 3"
b1 k
b1 ."
b1 E"
b100 g
b100 1"
b100 J"
b1000000011 h
b1000000011 0"
b1000000011 I"
b1 9"
b1 u
b1 '"
b1 :"
b1 p
b1 $"
b1 ;"
b1000000000 m
b1000000000 >"
b1000000000 H"
b0 o
b0 ="
b0 D"
1!
#185
0!
#190
b110 F
b110 v
b110 ("
b110 L"
b110 @
b110 N"
b0 6
b0 V"
b1010010 B
b110 #
b1 l
b1 5"
b1 A"
b1 K"
b0 n
b0 6"
b0 B"
b0 G"
b1 8"
b1 @"
b10 u
b10 '"
b10 :"
b10 p
b10 $"
b10 ;"
b1000000001 m
b1000000001 >"
b1000000001 H"
b1 o
b1 ="
b1 D"
b101 g
b101 1"
b101 J"
b1000000100 h
b1000000100 0"
b1000000100 I"
b11 q
b11 -"
b11 3"
b10 k
b10 ."
b10 E"
b101 G
b101 w
b101 &"
b101 7"
b101 R"
b110 A
b110 P"
b110 S"
b1 9
b1 r
b1 !"
b1 f"
b0 :
b0 s
b0 #"
b0 e"
b10100100000000001010110000000000000000000000000000000000000000000000000000000 2
b0 8
b0 7
b0 b"
b1 h"
1!
#195
0!
#200
b1 >
b1 t
b1 %"
b1 d"
b111 F
b111 v
b111 ("
b111 L"
b111 @
b111 N"
b1 6
b1 V"
b1000000000000000111 #
b1010011 B
b100000000010100110000000001010110000000000000000000000000000000000000000000000000000000 2
b1 8
b1 7
b1 b"
b10 h"
b1 :
b1 s
b1 #"
b1 e"
0g"
b111 A
b111 P"
b111 S"
b110 G
b110 w
b110 &"
b110 7"
b110 R"
b100 q
b100 -"
b100 3"
b11 k
b11 ."
b11 E"
b110 g
b110 1"
b110 J"
b1000000101 h
b1000000101 0"
b1000000101 I"
b11 u
b11 '"
b11 :"
b11 p
b11 $"
b11 ;"
b1000000010 m
b1000000010 >"
b1000000010 H"
b10 o
b10 ="
b10 D"
b10 l
b10 5"
b10 A"
b10 K"
1!
#205
0!
#210
b1000 F
b1000 v
b1000 ("
b1000 L"
b1000 @
b1000 N"
b100 >
b100 t
b100 %"
b100 d"
b100 6
b100 V"
b1010100 B
b100000000000000001000 #
b11 l
b11 5"
b11 A"
b11 K"
b100 u
b100 '"
b100 :"
b100 p
b100 $"
b100 ;"
b1000000011 m
b1000000011 >"
b1000000011 H"
b11 o
b11 ="
b11 D"
b111 g
b111 1"
b111 J"
b1000000110 h
b1000000110 0"
b1000000110 I"
b101 q
b101 -"
b101 3"
b1 j
b1 /"
b1 F"
b100 k
b100 ."
b100 E"
b111 G
b111 w
b111 &"
b111 7"
b111 R"
b1000 A
b1000 P"
b1000 S"
b10 :
b10 s
b10 #"
b10 e"
b10 i"
b10000000000010101000000000001010110000000000000000000000000000000000000000000000000000000 2
b100 8
b100 7
b100 b"
b0 h"
1!
#215
0!
#220
b1010101 F
b1010101 v
b1010101 ("
b1010101 L"
b1010101 @
b1010101 N"
b101 6
b101 V"
b101000000000001010101 #
b0 >
b0 t
b0 %"
b0 d"
b1010101 B
b10100000000010101010000000001010110000000000000000000000000000000000000000000000000000000 2
b101 8
b101 7
b101 b"
b1 h"
b10 9
b10 r
b10 !"
b10 f"
b0 :
b0 s
b0 #"
b0 e"
1g"
b1001 A
b1001 P"
b1001 S"
b1000 G
b1000 w
b1000 &"
b1000 7"
b1000 R"
b110 q
b110 -"
b110 3"
b100 j
b100 /"
b100 F"
b101 k
b101 ."
b101 E"
b1000 g
b1000 1"
b1000 J"
b1000000111 h
b1000000111 0"
b1000000111 I"
b101 u
b101 '"
b101 :"
b101 p
b101 $"
b101 ;"
b1000000100 m
b1000000100 >"
b1000000100 H"
b100 o
b100 ="
b100 D"
b100 l
b100 5"
b100 A"
b100 K"
1!
#225
0!
#230
b110 6
b110 V"
1_
b110 >
b110 t
b110 %"
b110 d"
b110000000000001010101 #
b101 l
b101 5"
b101 A"
b101 K"
b1 n
b1 6"
b1 B"
b1 G"
b110 u
b110 '"
b110 :"
b110 p
b110 $"
b110 ;"
b1000000101 m
b1000000101 >"
b1000000101 H"
b101 o
b101 ="
b101 D"
b1010101 g
b1010101 1"
b1010101 J"
b1000001000 h
b1000001000 0"
b1000001000 I"
b111 q
b111 -"
b111 3"
b0 j
b0 /"
b0 F"
b110 k
b110 ."
b110 E"
b1001 G
b1001 w
b1001 &"
b1001 7"
b1001 R"
1E
0D
0g"
b1 :
b1 s
b1 #"
b1 e"
b11000000000010101010000000001010110000000000000000000000000000000000000000000000000000000 2
b110 8
b110 7
b110 b"
b10 h"
1!
#235
0!
#240
b10011 >
b10011 t
b10011 %"
b10011 d"
b10011 6
b10011 V"
b10011000000000001010101 #
b101 Q
b101 d
b101 !#
b1 j"
b0 i"
b1001100000000010101010000000001010110000000000000000000000000000000000000000000000000000000 2
b10011 8
b10011 7
b10011 b"
b0 h"
b10 :
b10 s
b10 #"
b10 e"
b1000 q
b1000 -"
b1000 3"
b110 j
b110 /"
b110 F"
b111 k
b111 ."
b111 E"
0f
b101 e
b101 4"
b101 C"
b111 u
b111 '"
b111 :"
b111 p
b111 $"
b111 ;"
b1000000110 m
b1000000110 >"
b1000000110 H"
b110 o
b110 ="
b110 D"
b100 n
b100 6"
b100 B"
b100 G"
b110 l
b110 5"
b110 A"
b110 K"
1!
#245
0!
#250
b10100 6
b10100 V"
b11101 Q
b11101 d
b11101 !#
b0 >
b0 t
b0 %"
b0 d"
b10100000000000001010101 #
b111 l
b111 5"
b111 A"
b111 K"
b0 n
b0 6"
b0 B"
b0 G"
b1000 u
b1000 '"
b1000 :"
b1000 p
b1000 $"
b1000 ;"
b1000000111 m
b1000000111 >"
b1000000111 H"
b111 o
b111 ="
b111 D"
b11101 e
b11101 4"
b11101 C"
b1001 q
b1001 -"
b1001 3"
b10011 j
b10011 /"
b10011 F"
b1000 k
b1000 ."
b1000 E"
1g"
b0 9
b0 r
b0 !"
b0 f"
b0 :
b0 s
b0 #"
b0 e"
b1010000000000010101010000000001010110000000000000000000000000000000000000000000000000000000 2
b10100 8
b10100 7
b10100 b"
b1 h"
1!
#255
0!
#260
b10101 6
b10101 V"
b10101000000000001010101 #
b1010100000000010101010000000001010110000000000000000000000000000000000000000000000000000000 2
b10101 8
b10101 7
b10101 b"
b10 h"
b1 :
b1 s
b1 #"
b1 e"
b1010 q
b1010 -"
b1010 3"
b0 j
b0 /"
b0 F"
b1001 k
b1001 ."
b1001 E"
b1001 u
b1001 '"
b1001 :"
b1001 p
b1001 $"
b1001 ;"
b1000001000 m
b1000001000 >"
b1000001000 H"
b1000 o
b1000 ="
b1000 D"
b110 n
b110 6"
b110 B"
b110 G"
b1000 l
b1000 5"
b1000 A"
b1000 K"
1!
#265
0!
#270
b11000 6
b11000 V"
b1001101 Q
b1001101 d
b1001101 !#
b11000000000000001010101 #
b1010101 l
b1010101 5"
b1010101 A"
b1010101 K"
b10011 n
b10011 6"
b10011 B"
b10011 G"
b1 <"
b11 9"
b1001101 e
b1001101 4"
b1001101 C"
b1011 q
b1011 -"
b1011 3"
b1010 k
b1010 ."
b1010 E"
b10 :
b10 s
b10 #"
b10 e"
b1 i"
b1100000000000010101010000000001010110000000000000000000000000000000000000000000000000000000 2
b11000 8
b11000 7
b11000 b"
b0 h"
1!
#275
0!
#280
b11001 6
b11001 V"
b11001000000000001010101 #
b11010011100 Q
b11010011100 d
b11010011100 !#
b1100100000000010101010000000001010110000000000000000000000000000000000000000000000000000000 2
b11001 8
b11001 7
b11001 b"
b1 h"
b1 9
b1 r
b1 !"
b1 f"
b0 :
b0 s
b0 #"
b0 e"
b1100 q
b1100 -"
b1100 3"
b1011 k
b1011 ."
b1011 E"
b11010011100 e
b11010011100 4"
b11010011100 C"
b11 8"
b11 @"
b10 <"
1!
#285
0!
#290
b11010 6
b11010 V"
b11010 >
b11010 t
b11010 %"
b11010 d"
b11010000000000001010101 #
1P
b11 <"
b1101 q
b1101 -"
b1101 3"
b1100 k
b1100 ."
b1100 E"
0g"
b1 :
b1 s
b1 #"
b1 e"
b1101000000000010101010000000001010110000000000000000000000000000000000000000000000000000000 2
b11010 8
b11010 7
b11010 b"
b10 h"
1!
#295
0!
#300
b11101 >
b11101 t
b11101 %"
b11101 d"
b11101 6
b11101 V"
b11101000000000001010101 #
b10 i"
b1110100000000010101010000000001010110000000000000000000000000000000000000000000000000000000 2
b11101 8
b11101 7
b11101 b"
b0 h"
b10 :
b10 s
b10 #"
b10 e"
b1110 q
b1110 -"
b1110 3"
b11010 j
b11010 /"
b11010 F"
b1101 k
b1101 ."
b1101 E"
b100 <"
1!
#305
0!
#310
b11110 6
b11110 V"
b0 >
b0 t
b0 %"
b0 d"
b11110000000000001010101 #
b101 <"
b1111 q
b1111 -"
b1111 3"
b11101 j
b11101 /"
b11101 F"
b1110 k
b1110 ."
b1110 E"
1g"
b10 9
b10 r
b10 !"
b10 f"
b0 :
b0 s
b0 #"
b0 e"
b1111000000000010101010000000001010110000000000000000000000000000000000000000000000000000000 2
b11110 8
b11110 7
b11110 b"
b1 h"
1!
#315
0!
#320
b11111 6
b11111 V"
b11111000000000001010101 #
b11111 >
b11111 t
b11111 %"
b11111 d"
b1111100000000010101010000000001010110000000000000000000000000000000000000000000000000000000 2
b11111 8
b11111 7
b11111 b"
b10 h"
b1 :
b1 s
b1 #"
b1 e"
0g"
b10000 q
b10000 -"
b10000 3"
b0 j
b0 /"
b0 F"
b1111 k
b1111 ."
b1111 E"
b110 <"
1!
#325
0!
#330
b101100 >
b101100 t
b101100 %"
b101100 d"
b101100 6
b101100 V"
b101100000000000001010101 #
b111 <"
b10001 q
b10001 -"
b10001 3"
b11111 j
b11111 /"
b11111 F"
b10000 k
b10000 ."
b10000 E"
b10 :
b10 s
b10 #"
b10 e"
b10 j"
b0 i"
b10110000000000010101010000000001010110000000000000000000000000000000000000000000000000000000 2
b101100 8
b101100 7
b101100 b"
b0 h"
1!
#335
0!
#340
b101101 6
b101101 V"
b101101000000000001010101 #
b0 >
b0 t
b0 %"
b0 d"
b10110100000000010101010000000001010110000000000000000000000000000000000000000000000000000000 2
b101101 8
b101101 7
b101101 b"
b1 h"
b0 9
b0 r
b0 !"
b0 f"
b0 :
b0 s
b0 #"
b0 e"
1g"
b10010 q
b10010 -"
b10010 3"
b101100 j
b101100 /"
b101100 F"
b10001 k
b10001 ."
b10001 E"
b0 <"
1!
#345
0!
#350
b101110 6
b101110 V"
b101110000000000001010101 #
b1 <"
b10011 q
b10011 -"
b10011 3"
b0 j
b0 /"
b0 F"
b10010 k
b10010 ."
b10010 E"
b1 :
b1 s
b1 #"
b1 e"
b10111000000000010101010000000001010110000000000000000000000000000000000000000000000000000000 2
b101110 8
b101110 7
b101110 b"
b10 h"
1!
#355
0!
#360
b110001 6
b110001 V"
b110001000000000001010101 #
b1 i"
b11000100000000010101010000000001010110000000000000000000000000000000000000000000000000000000 2
b110001 8
b110001 7
b110001 b"
b0 h"
b10 :
b10 s
b10 #"
b10 e"
b10100 q
b10100 -"
b10100 3"
b10011 k
b10011 ."
b10011 E"
b10 <"
1!
#365
0!
#370
b110010 6
b110010 V"
b110010000000000001010101 #
b11 <"
b10101 q
b10101 -"
b10101 3"
b10100 k
b10100 ."
b10100 E"
b1 9
b1 r
b1 !"
b1 f"
b0 :
b0 s
b0 #"
b0 e"
b11001000000000010101010000000001010110000000000000000000000000000000000000000000000000000000 2
b110010 8
b110010 7
b110010 b"
b1 h"
1!
#375
0!
#380
b110011 6
b110011 V"
b110011000000000001010101 #
b110011 >
b110011 t
b110011 %"
b110011 d"
b11001100000000010101010000000001010110000000000000000000000000000000000000000000000000000000 2
b110011 8
b110011 7
b110011 b"
b10 h"
b1 :
b1 s
b1 #"
b1 e"
0g"
b10110 q
b10110 -"
b10110 3"
b10101 k
b10101 ."
b10101 E"
b100 <"
1!
#385
0!
